…
Request codes are used to access the specific datasets in `AustralianPoliticians`. These codes used in conjunction with the `get_auspol()` function allow for a dataset to be downloaded and assigned a variable name. The `show_datacodes()` function prints these codes to the console as a tibble.

```{r}
show_datacodes()
```


## Download Australian Politician data

Each of the shown codes is associated with a .csv dataset. The `get_auspol()` function is used to download these datasets, allowing them to be assigned to a variable. To function correctly, the argument passed to `get_auspol()` must be a character string. If `get_auspol()` is called without being assigned to a variable it will print out a preview to the requested dataset to the console, as seen below.

```{r, eval = F}
get_auspol("all")
# A tibble: 1,781 x 20                                                                    
   uniqueID  surname allOtherNames firstName commonName
   <chr>     <chr>   <chr>         <chr>     <chr>     
 1 Abbott18~ Abbott  Richard Hart~ Richard   NA        
 2 Abbott18~ Abbott  Percy Phipps  Percy     NA        
 3 Abbott18~ Abbott  Macartney     Macartney Mac       
 4 Abbott18~ Abbott  Charles Lydi~ Charles   Aubrey    
 5 Abbott18~ Abbott  Joseph Palmer Joseph    NA        
 6 Abbott19~ Abbott  Anthony John  Anthony   Tony      
 7 Abel1939  Abel    John Arthur   John      NA        
 8 Abetz1958 Abetz   Eric          Eric      NA        
 9 Adams1943 Adams   Judith Anne   Judith    NA        
10 Adams1951 Adams   Dick Godfrey~ Dick      NA        
# ... with 1,771 more rows, and 15 more variables:
#   displayName <chr>, earlierOrLaterNames <chr>,
#   title <chr>, gender <chr>, birthDate <date>,
#   birthYear <dbl>, birthPlace <chr>,
#   deathDate <date>, member <dbl>, senator <dbl>,
#   wasPrimeMinister <dbl>, wikidataID <chr>,
#   wikipedia <chr>, adb <chr>, comments <chr>
…
